C:\Users\Arnaud RIGAUT\IdeaProjects\BungeeTeam\src\main\java\me\code\addPoint.java
C:\Users\Arnaud RIGAUT\IdeaProjects\BungeeTeam\src\main\java\me\code\getPointCommand.java
C:\Users\Arnaud RIGAUT\IdeaProjects\BungeeTeam\src\main\java\me\code\assignTeam.java
C:\Users\Arnaud RIGAUT\IdeaProjects\BungeeTeam\src\main\java\me\code\BungeeMain.java
